[2019-08-30 15:26:12] jobconsumer is current running on pid of 28899
[2019-08-30 15:26:12] STARTING WORKER listening on https://sqs.ap-northeast-2.amazonaws.com/929450513035/standard_rendering_queue
[2019-08-30 15:26:12] Consumer process "28899" is rendering for the domain "http://www.chinabook.co.kr"
[2019-08-30 15:26:12] HTML file is successfully uploaded to s3 -> 'www_chinabook_co_kr.html'
[2019-08-30 15:26:12] Consumer process "28899" is rendering for the domain "http://www.ccamue.com"
Request went wrong
[2019-08-30 15:26:12] HTML file is successfully uploaded to s3 -> 'www_ccamue_com.html'
[2019-08-30 15:26:12] Consumer process "28899" is rendering for the domain "http://hkmedia.co.kr"
Request went wrong
[2019-08-30 15:26:12] HTML file is successfully uploaded to s3 -> 'hkmedia_co_kr.html'
[2019-08-30 15:26:12] Consumer process "28899" is rendering for the domain "http://www.dangstroy.com"
Request went wrong
[2019-08-30 15:26:12] HTML file is successfully uploaded to s3 -> 'www_dangstroy_com.html'
[2019-08-30 15:26:12] Consumer process "28899" is rendering for the domain "http://www.zull.co.kr"
Request went wrong
[2019-08-30 15:26:12] HTML file is successfully uploaded to s3 -> 'www_zull_co_kr.html'
[2019-08-30 15:26:12] Consumer process "28899" is rendering for the domain "http://www.ssflowers.co.kr"
[2019-08-30 15:26:12] HTML file is successfully uploaded to s3 -> 'www_ssflowers_co_kr.html'
[2019-08-30 15:26:12] Consumer process "28899" is rendering for the domain "http://www.sunwedding.net"
Request went wrong
[2019-08-30 15:26:12] HTML file is successfully uploaded to s3 -> 'www_sunwedding_net.html'
[2019-08-30 15:26:12] Consumer process "28899" is rendering for the domain "http://www.shmed.co.kr"
[2019-08-30 15:26:12] HTML file is successfully uploaded to s3 -> 'www_shmed_co_kr.html'
[2019-08-30 15:26:12] Consumer process "28899" is rendering for the domain "http://www.1toys.co.kr"
Request went wrong
[2019-08-30 15:26:12] HTML file is successfully uploaded to s3 -> 'www_1toys_co_kr.html'
[2019-08-30 15:26:12] Consumer process "28899" is rendering for the domain "http://ecomate.co.kr"
Request went wrong
[2019-08-30 15:26:12] HTML file is successfully uploaded to s3 -> 'ecomate_co_kr.html'
[2019-08-30 15:26:12] Consumer process "28899" is rendering for the domain "http://www.celruntv.com"
Request went wrong
[2019-08-30 15:26:12] HTML file is successfully uploaded to s3 -> 'www_celruntv_com.html'
[2019-08-30 15:26:12] Consumer process "28899" is rendering for the domain "http://www.flowercrystal.co.kr"
Request went wrong
[2019-08-30 15:26:12] HTML file is successfully uploaded to s3 -> 'www_flowercrystal_co_kr.html'
[2019-08-30 15:26:12] Consumer process "28899" is rendering for the domain "http://www.sense-up.com"
[2019-08-30 15:26:12] HTML file is successfully uploaded to s3 -> 'www_sense-up_com.html'
[2019-08-30 15:26:12] Consumer process "28899" is rendering for the domain "http://www.aristat.kr"
Request went wrong
[2019-08-30 15:26:12] HTML file is successfully uploaded to s3 -> 'www_aristat_kr.html'
[2019-08-30 15:26:12] Consumer process "28899" is rendering for the domain "http://www.r2company.com"
[2019-08-30 15:26:12] HTML file is successfully uploaded to s3 -> 'www_r2company_com.html'
[2019-08-30 15:26:12] Consumer process "28899" is rendering for the domain "http://www.flower5004.net"
Request went wrong
[2019-08-30 15:26:12] HTML file is successfully uploaded to s3 -> 'www_flower5004_net.html'
[2019-08-30 15:26:12] Consumer process "28899" is rendering for the domain "http://www.nastel.net"
[2019-08-30 15:26:12] HTML file is successfully uploaded to s3 -> 'www_nastel_net.html'
[2019-08-30 15:26:12] Consumer process "28899" is rendering for the domain "http://www.princo.co.kr"
[2019-08-30 15:26:12] HTML file is successfully uploaded to s3 -> 'www_princo_co_kr.html'
[2019-08-30 15:26:12] Consumer process "28899" is rendering for the domain "http://www.ilmiparty.com,www.okparty.co.kr"
Request went wrong
[2019-08-30 15:26:12] HTML file is successfully uploaded to s3 -> 'www_ilmiparty_com,www_okparty_co_kr.html'
[2019-08-30 15:26:12] Consumer process "28899" is rendering for the domain "http://kideshop.com"
[2019-08-30 15:26:12] HTML file is successfully uploaded to s3 -> 'kideshop_com.html'
[2019-08-30 15:26:12] Consumer process "28899" is rendering for the domain "http://www.comav.co.kr"
Request went wrong
[2019-08-30 15:26:12] HTML file is successfully uploaded to s3 -> 'www_comav_co_kr.html'
[2019-08-30 15:26:12] Consumer process "28899" is rendering for the domain "http://www.jiibexpo.com"
Request went wrong
[2019-08-30 15:26:12] HTML file is successfully uploaded to s3 -> 'www_jiibexpo_com.html'
[2019-08-30 15:26:12] Consumer process "28899" is rendering for the domain "http://www.pinz.co.kr"
Request went wrong
[2019-08-30 15:26:12] HTML file is successfully uploaded to s3 -> 'www_pinz_co_kr.html'
[2019-08-30 15:26:12] Consumer process "28899" is rendering for the domain "http://bnmkr.com"
[2019-08-30 15:26:12] HTML file is successfully uploaded to s3 -> 'bnmkr_com.html'
[2019-08-30 15:26:12] Consumer process "28899" is rendering for the domain "http://www.dream-pia.net"
Request went wrong
[2019-08-30 15:26:12] HTML file is successfully uploaded to s3 -> 'www_dream-pia_net.html'
[2019-08-30 15:26:12] Consumer process "28899" is rendering for the domain "http://www.idsedu.com"
Request went wrong
[2019-08-30 15:26:12] HTML file is successfully uploaded to s3 -> 'www_idsedu_com.html'
[2019-08-30 15:26:12] Consumer process "28899" is rendering for the domain "http://www.aquaone.co.kr"
Request went wrong
[2019-08-30 15:26:12] HTML file is successfully uploaded to s3 -> 'www_aquaone_co_kr.html'
[2019-08-30 15:26:12] Consumer process "28899" is rendering for the domain "http://www.cs1004.or.kr"
Request went wrong
[2019-08-30 15:26:12] HTML file is successfully uploaded to s3 -> 'www_cs1004_or_kr.html'
[2019-08-30 15:26:12] Consumer process "28899" is rendering for the domain "http://www.bestcdr.net"
Request went wrong
[2019-08-30 15:26:12] HTML file is successfully uploaded to s3 -> 'www_bestcdr_net.html'
[2019-08-30 15:26:12] Consumer process "28899" is rendering for the domain "http://www.partal.co.kr"
Request went wrong
[2019-08-30 15:26:12] HTML file is successfully uploaded to s3 -> 'www_partal_co_kr.html'
[2019-08-30 15:26:12] Consumer process "28899" is rendering for the domain "http://www.sani-life.com"
[2019-08-30 15:26:12] HTML file is successfully uploaded to s3 -> 'www_sani-life_com.html'
[2019-08-30 15:26:12] Consumer process "28899" is rendering for the domain "http://www.hi.seoul.kr"
Request went wrong
[2019-08-30 15:26:12] HTML file is successfully uploaded to s3 -> 'www_hi_seoul_kr.html'
[2019-08-30 15:26:12] Consumer process "28899" is rendering for the domain "http://www.gallery-korea.com"
[2019-08-30 15:26:12] HTML file is successfully uploaded to s3 -> 'www_gallery-korea_com.html'
[2019-08-30 15:26:12] Consumer process "28899" is rendering for the domain "http://www.koha.co.kr"
Request went wrong
[2019-08-30 15:26:12] HTML file is successfully uploaded to s3 -> 'www_koha_co_kr.html'
[2019-08-30 15:26:12] Consumer process "28899" is rendering for the domain "http://www.memorykit.co.kr"
Request went wrong
[2019-08-30 15:26:12] HTML file is successfully uploaded to s3 -> 'www_memorykit_co_kr.html'
[2019-08-30 15:26:12] Consumer process "28899" is rendering for the domain "http://www.alzzawrite.co.kr"
[2019-08-30 15:26:12] HTML file is successfully uploaded to s3 -> 'www_alzzawrite_co_kr.html'
[2019-08-30 15:26:12] Consumer process "28899" is rendering for the domain "http://atowel.net"
[2019-08-30 15:26:12] HTML file is successfully uploaded to s3 -> 'atowel_net.html'
[2019-08-30 15:26:12] Consumer process "28899" is rendering for the domain "http://www.moggoji.co.kr"
[2019-08-30 15:26:12] HTML file is successfully uploaded to s3 -> 'www_moggoji_co_kr.html'
[2019-08-30 15:26:12] Consumer process "28899" is rendering for the domain "http://www.mayrain.co.kr"
[2019-08-30 15:26:12] HTML file is successfully uploaded to s3 -> 'www_mayrain_co_kr.html'
[2019-08-30 15:26:12] Consumer process "28899" is rendering for the domain "http://s-devil.co.kr"
Request went wrong
[2019-08-30 15:26:12] HTML file is successfully uploaded to s3 -> 's-devil_co_kr.html'
[2019-08-30 15:26:12] Consumer process "28899" is rendering for the domain "http://www.esilverstar.co.kr"
[2019-08-30 15:26:12] HTML file is successfully uploaded to s3 -> 'www_esilverstar_co_kr.html'
[2019-08-30 15:26:12] Consumer process "28899" is rendering for the domain "http://www.pumpsori.co.kr"
[2019-08-30 15:26:12] HTML file is successfully uploaded to s3 -> 'www_pumpsori_co_kr.html'
[2019-08-30 15:26:12] Consumer process "28899" is rendering for the domain "http://www.i-hanwoo.co.kr"
[2019-08-30 15:26:12] HTML file is successfully uploaded to s3 -> 'www_i-hanwoo_co_kr.html'
[2019-08-30 15:26:12] Consumer process "28899" is rendering for the domain "http://www.whoisweb.net"
Request went wrong
[2019-08-30 15:26:12] HTML file is successfully uploaded to s3 -> 'www_whoisweb_net.html'
[2019-08-30 15:26:12] Consumer process "28899" is rendering for the domain "http://www.pluszen.net"
Request went wrong
[2019-08-30 15:26:12] HTML file is successfully uploaded to s3 -> 'www_pluszen_net.html'
[2019-08-30 15:26:12] Consumer process "28899" is rendering for the domain "http://www.2434.co.kr"
[2019-08-30 15:26:12] HTML file is successfully uploaded to s3 -> 'www_2434_co_kr.html'
[2019-08-30 15:26:12] Consumer process "28899" is rendering for the domain "http://www.godesignsum.co.kr"
[2019-08-30 15:26:12] HTML file is successfully uploaded to s3 -> 'www_godesignsum_co_kr.html'
[2019-08-30 15:26:12] Consumer process "28899" is rendering for the domain "http://www.mibong.co.kr"
[2019-08-30 15:26:12] HTML file is successfully uploaded to s3 -> 'www_mibong_co_kr.html'
[2019-08-30 15:26:12] Consumer process "28899" is rendering for the domain "http://www.secretarypro.com"
[2019-08-30 15:26:12] HTML file is successfully uploaded to s3 -> 'www_secretarypro_com.html'
[2019-08-30 15:26:12] Consumer process "28899" is rendering for the domain "http://www.verymall.co.kr"
[2019-08-30 15:26:12] HTML file is successfully uploaded to s3 -> 'www_verymall_co_kr.html'
[2019-08-30 15:26:12] Consumer process "28899" is rendering for the domain "http://www.jolichiot.net"
Request went wrong
[2019-08-30 15:26:12] HTML file is successfully uploaded to s3 -> 'www_jolichiot_net.html'
[2019-08-30 15:26:12] Consumer process "28899" is rendering for the domain "http://www.echofarm.co.kr"
Request went wrong
[2019-08-30 15:26:12] HTML file is successfully uploaded to s3 -> 'www_echofarm_co_kr.html'
[2019-08-30 15:26:12] Consumer process "28899" is rendering for the domain "http://www.sukusuku.co.kr"
Request went wrong
[2019-08-30 15:26:12] HTML file is successfully uploaded to s3 -> 'www_sukusuku_co_kr.html'
[2019-08-30 15:26:12] Consumer process "28899" is rendering for the domain "http://www.mbcsoccer.com"
Request went wrong
[2019-08-30 15:26:12] HTML file is successfully uploaded to s3 -> 'www_mbcsoccer_com.html'
[2019-08-30 15:26:12] Consumer process "28899" is rendering for the domain "http://www.yangsquilt.com"
[2019-08-30 15:26:12] HTML file is successfully uploaded to s3 -> 'www_yangsquilt_com.html'
[2019-08-30 15:26:12] Consumer process "28899" is rendering for the domain "http://hellobeauty.co.kr"
Request went wrong
[2019-08-30 15:26:12] HTML file is successfully uploaded to s3 -> 'hellobeauty_co_kr.html'
[2019-08-30 15:26:12] Consumer process "28899" is rendering for the domain "http://www.yesanymail.com"
Request went wrong
[2019-08-30 15:26:12] HTML file is successfully uploaded to s3 -> 'www_yesanymail_com.html'
[2019-08-30 15:26:12] Consumer process "28899" is rendering for the domain "http://www.dinodeco.co.kr"
Request went wrong
[2019-08-30 15:26:12] HTML file is successfully uploaded to s3 -> 'www_dinodeco_co_kr.html'
[2019-08-30 15:26:12] Consumer process "28899" is rendering for the domain "http://novatec21.whoismall.com"
Request went wrong
[2019-08-30 15:26:12] HTML file is successfully uploaded to s3 -> 'novatec21_whoismall_com.html'
[2019-08-30 15:26:12] Consumer process "28899" is rendering for the domain "http://www.popsmall.com"
[2019-08-30 15:26:12] HTML file is successfully uploaded to s3 -> 'www_popsmall_com.html'
[2019-08-30 15:26:12] Consumer process "28899" is rendering for the domain "http://www.s-poche.com"
Request went wrong
[2019-08-30 15:26:12] HTML file is successfully uploaded to s3 -> 'www_s-poche_com.html'
[2019-08-30 15:26:12] Consumer process "28899" is rendering for the domain "http://www.bodytia.com"
Request went wrong
[2019-08-30 15:26:12] HTML file is successfully uploaded to s3 -> 'www_bodytia_com.html'
[2019-08-30 15:26:12] Consumer process "28899" is rendering for the domain "http://netbiz.matitax.co.kr"
Request went wrong
[2019-08-30 15:26:12] HTML file is successfully uploaded to s3 -> 'netbiz_matitax_co_kr.html'
[2019-08-30 15:26:12] Consumer process "28899" is rendering for the domain "http://www.brotherace.com"
[2019-08-30 15:26:12] HTML file is successfully uploaded to s3 -> 'www_brotherace_com.html'
[2019-08-30 15:26:12] Consumer process "28899" is rendering for the domain "http://www.podman.co.kr"
[2019-08-30 15:26:12] HTML file is successfully uploaded to s3 -> 'www_podman_co_kr.html'
[2019-08-30 15:26:12] Consumer process "28899" is rendering for the domain "http://www.hutsandbay.com"
[2019-08-30 15:26:12] HTML file is successfully uploaded to s3 -> 'www_hutsandbay_com.html'
[2019-08-30 15:26:12] Consumer process "28899" is rendering for the domain "http://gigalan.co.kr"
[2019-08-30 15:26:12] HTML file is successfully uploaded to s3 -> 'gigalan_co_kr.html'
[2019-08-30 15:26:12] Consumer process "28899" is rendering for the domain "http://www.dhpkorea.co.kr"
Request went wrong
[2019-08-30 15:26:12] HTML file is successfully uploaded to s3 -> 'www_dhpkorea_co_kr.html'
[2019-08-30 15:26:12] Consumer process "28899" is rendering for the domain "http://www.jsiware.co.kr"
Request went wrong
[2019-08-30 15:26:12] HTML file is successfully uploaded to s3 -> 'www_jsiware_co_kr.html'
[2019-08-30 15:26:12] Consumer process "28899" is rendering for the domain "http://shop.empplus.co.kr"
Request went wrong
[2019-08-30 15:26:12] HTML file is successfully uploaded to s3 -> 'shop_empplus_co_kr.html'
[2019-08-30 15:26:12] Consumer process "28899" is rendering for the domain "http://www.11thst.co.kr"
Request went wrong
[2019-08-30 15:26:12] HTML file is successfully uploaded to s3 -> 'www_11thst_co_kr.html'
[2019-08-30 15:26:12] Consumer process "28899" is rendering for the domain "http://www.herbnala.co.kr"
Request went wrong
[2019-08-30 15:26:12] HTML file is successfully uploaded to s3 -> 'www_herbnala_co_kr.html'
[2019-08-30 15:26:12] Consumer process "28899" is rendering for the domain "http://www.gcnc.co.kr"
[2019-08-30 15:26:12] HTML file is successfully uploaded to s3 -> 'www_gcnc_co_kr.html'
[2019-08-30 15:26:12] Consumer process "28899" is rendering for the domain "http://www.strangerk.com"
[2019-08-30 15:26:12] HTML file is successfully uploaded to s3 -> 'www_strangerk_com.html'
[2019-08-30 15:26:12] Consumer process "28899" is rendering for the domain "http://www.smilego.com"
[2019-08-30 15:26:12] HTML file is successfully uploaded to s3 -> 'www_smilego_com.html'
[2019-08-30 15:26:12] Consumer process "28899" is rendering for the domain "http://www.threecompany.net"
Request went wrong
[2019-08-30 15:26:12] HTML file is successfully uploaded to s3 -> 'www_threecompany_net.html'
[2019-08-30 15:26:12] Consumer process "28899" is rendering for the domain "http://gaguup.co.kr"
[2019-08-30 15:26:12] HTML file is successfully uploaded to s3 -> 'gaguup_co_kr.html'
[2019-08-30 15:26:12] Consumer process "28899" is rendering for the domain "http://paulchung.co.kr"
Request went wrong
[2019-08-30 15:26:12] HTML file is successfully uploaded to s3 -> 'paulchung_co_kr.html'
[2019-08-30 15:26:12] Consumer process "28899" is rendering for the domain "http://gamgol.kr"
[2019-08-30 15:26:12] HTML file is successfully uploaded to s3 -> 'gamgol_kr.html'
[2019-08-30 15:26:12] Consumer process "28899" is rendering for the domain "http://www.ihanapack.com"
Request went wrong
[2019-08-30 15:26:12] HTML file is successfully uploaded to s3 -> 'www_ihanapack_com.html'
[2019-08-30 15:26:12] Consumer process "28899" is rendering for the domain "http://www.donews.godo.co.kr"
Request went wrong
[2019-08-30 15:26:12] HTML file is successfully uploaded to s3 -> 'www_donews_godo_co_kr.html'
[2019-08-30 15:26:12] Consumer process "28899" is rendering for the domain "http://www.i-shu.com"
[2019-08-30 15:26:12] HTML file is successfully uploaded to s3 -> 'www_i-shu_com.html'
[2019-08-30 15:26:12] Consumer process "28899" is rendering for the domain "http://i-help.kr"
[2019-08-30 15:26:12] HTML file is successfully uploaded to s3 -> 'i-help_kr.html'
[2019-08-30 15:26:12] Consumer process "28899" is rendering for the domain "http://www.daegajesa.com"
[2019-08-30 15:26:12] HTML file is successfully uploaded to s3 -> 'www_daegajesa_com.html'
[2019-08-30 15:26:12] Consumer process "28899" is rendering for the domain "http://www.neoaddm.com"
[2019-08-30 15:26:12] HTML file is successfully uploaded to s3 -> 'www_neoaddm_com.html'
[2019-08-30 15:26:12] Consumer process "28899" is rendering for the domain "http://www.filejuri.com"
[2019-08-30 15:26:12] HTML file is successfully uploaded to s3 -> 'www_filejuri_com.html'
[2019-08-30 15:26:12] Consumer process "28899" is rendering for the domain "http://www.onavi.co.kr"
Request went wrong
[2019-08-30 15:26:12] HTML file is successfully uploaded to s3 -> 'www_onavi_co_kr.html'
[2019-08-30 15:26:12] Consumer process "28899" is rendering for the domain "http://chofarm.com"
[2019-08-30 15:26:12] HTML file is successfully uploaded to s3 -> 'chofarm_com.html'
[2019-08-30 15:26:12] Consumer process "28899" is rendering for the domain "http://www.dully.kr"
Request went wrong
[2019-08-30 15:26:12] HTML file is successfully uploaded to s3 -> 'www_dully_kr.html'
[2019-08-30 15:26:12] Consumer process "28899" is rendering for the domain "http://inkday.co.kr"
Request went wrong
[2019-08-30 15:26:12] HTML file is successfully uploaded to s3 -> 'inkday_co_kr.html'
[2019-08-30 15:26:12] Consumer process "28899" is rendering for the domain "http://www.pcda.co.kr"
Request went wrong
[2019-08-30 15:26:12] HTML file is successfully uploaded to s3 -> 'www_pcda_co_kr.html'
[2019-08-30 15:26:12] Consumer process "28899" is rendering for the domain "http://www.famz.co.kr"
[2019-08-30 15:26:12] HTML file is successfully uploaded to s3 -> 'www_famz_co_kr.html'
[2019-08-30 15:26:12] Consumer process "28899" is rendering for the domain "http://www.telestudy.co.kr"
Request went wrong
[2019-08-30 15:26:12] HTML file is successfully uploaded to s3 -> 'www_telestudy_co_kr.html'
[2019-08-30 15:26:12] Consumer process "28899" is rendering for the domain "http://aesop.com"
[2019-08-30 15:26:12] HTML file is successfully uploaded to s3 -> 'aesop_com.html'
[2019-08-30 15:26:12] Consumer process "28899" is rendering for the domain "http://eurosystem.co.kr"
[2019-08-30 15:26:12] HTML file is successfully uploaded to s3 -> 'eurosystem_co_kr.html'
[2019-08-30 15:26:12] Consumer process "28899" is rendering for the domain "http://www.tpnet.co.kr"
Request went wrong
[2019-08-30 15:26:12] HTML file is successfully uploaded to s3 -> 'www_tpnet_co_kr.html'
[2019-08-30 15:26:12] Consumer process "28899" is rendering for the domain "http://sejinbiz.com"
[2019-08-30 15:26:12] HTML file is successfully uploaded to s3 -> 'sejinbiz_com.html'
[2019-08-30 15:26:12] Consumer process "28899" is rendering for the domain "http://www.dikplus.co.kr"
[2019-08-30 15:26:12] HTML file is successfully uploaded to s3 -> 'www_dikplus_co_kr.html'
[2019-08-30 15:26:12] Consumer process "28899" is rendering for the domain "http://www.hansu-car.co.kr"
Request went wrong
[2019-08-30 15:26:12] HTML file is successfully uploaded to s3 -> 'www_hansu-car_co_kr.html'
[2019-08-30 15:26:12] Consumer process "28899" is rendering for the domain "http://www.aptmarket.net"
Request went wrong
[2019-08-30 15:26:12] HTML file is successfully uploaded to s3 -> 'www_aptmarket_net.html'
[2019-08-30 15:26:12] Consumer process "28899" is rendering for the domain "http://www.toxi.co.kr"
Request went wrong
[2019-08-30 15:26:12] HTML file is successfully uploaded to s3 -> 'www_toxi_co_kr.html'
[2019-08-30 15:26:12] Consumer process "28899" is rendering for the domain "http://www.mostbeautiful.co.kr"
Request went wrong
[2019-08-30 15:26:12] HTML file is successfully uploaded to s3 -> 'www_mostbeautiful_co_kr.html'
[2019-08-30 15:26:12] Consumer process "28899" is rendering for the domain "http://www.pashop.co.kr"
[2019-08-30 15:26:12] HTML file is successfully uploaded to s3 -> 'www_pashop_co_kr.html'
[2019-08-30 15:26:12] Consumer process "28899" is rendering for the domain "http://www.coffeepasco.com"
Request went wrong
[2019-08-30 15:26:12] HTML file is successfully uploaded to s3 -> 'www_coffeepasco_com.html'
[2019-08-30 15:26:12] Consumer process "28899" is rendering for the domain "http://www.jubeancoffee.com"
Request went wrong
[2019-08-30 15:26:12] HTML file is successfully uploaded to s3 -> 'www_jubeancoffee_com.html'
[2019-08-30 15:26:12] Consumer process "28899" is rendering for the domain "http://www.su2.kr"
Request went wrong
[2019-08-30 15:26:12] HTML file is successfully uploaded to s3 -> 'www_su2_kr.html'
[2019-08-30 15:26:12] Consumer process "28899" is rendering for the domain "http://www.ebionet.com"
[2019-08-30 15:26:12] HTML file is successfully uploaded to s3 -> 'www_ebionet_com.html'
[2019-08-30 15:26:12] Consumer process "28899" is rendering for the domain "http://www.bysol.com"
[2019-08-30 15:26:12] HTML file is successfully uploaded to s3 -> 'www_bysol_com.html'
[2019-08-30 15:26:12] Consumer process "28899" is rendering for the domain "http://www.365sale.co"
[2019-08-30 15:26:12] HTML file is successfully uploaded to s3 -> 'www_365sale_co.html'
[2019-08-30 15:26:12] Consumer process "28899" is rendering for the domain "http://www.ibadminton.co.kr"
Request went wrong
[2019-08-30 15:26:12] HTML file is successfully uploaded to s3 -> 'www_ibadminton_co_kr.html'
[2019-08-30 15:26:12] Consumer process "28899" is rendering for the domain "http://www.notemaul.co.kr"
Request went wrong
[2019-08-30 15:26:12] HTML file is successfully uploaded to s3 -> 'www_notemaul_co_kr.html'
[2019-08-30 15:26:12] Consumer process "28899" is rendering for the domain "http://www.aroa.co.kr"
[2019-08-30 15:26:12] HTML file is successfully uploaded to s3 -> 'www_aroa_co_kr.html'
[2019-08-30 15:26:12] Consumer process "28899" is rendering for the domain "http://www.goenglish.co.kr"
Request went wrong
[2019-08-30 15:26:12] HTML file is successfully uploaded to s3 -> 'www_goenglish_co_kr.html'
[2019-08-30 15:26:12] Consumer process "28899" is rendering for the domain "http://www.huis.or.kr"
Request went wrong
[2019-08-30 15:26:12] HTML file is successfully uploaded to s3 -> 'www_huis_or_kr.html'
[2019-08-30 15:26:12] Consumer process "28899" is rendering for the domain "http://www.keystar.co.kr"
[2019-08-30 15:26:12] HTML file is successfully uploaded to s3 -> 'www_keystar_co_kr.html'
[2019-08-30 15:26:12] Consumer process "28899" is rendering for the domain "https://budlelee1.blog.me"
[2019-08-30 15:26:12] HTML file is successfully uploaded to s3 -> 'budlelee1_blog_me.html'
[2019-08-30 15:26:12] Consumer process "28899" is rendering for the domain "http://www.clickresort.com"
[2019-08-30 15:26:12] HTML file is successfully uploaded to s3 -> 'www_clickresort_com.html'
[2019-08-30 15:26:12] Consumer process "28899" is rendering for the domain "http://www.ctigeren.cafe24.com"
[2019-08-30 15:26:12] HTML file is successfully uploaded to s3 -> 'www_ctigeren_cafe24_com.html'
[2019-08-30 15:26:12] Consumer process "28899" is rendering for the domain "http://www.tabra.co.kr"
Request went wrong
[2019-08-30 15:26:12] HTML file is successfully uploaded to s3 -> 'www_tabra_co_kr.html'
[2019-08-30 15:26:12] Consumer process "28899" is rendering for the domain "http://www.office-mall.co.kr"
[2019-08-30 15:26:12] HTML file is successfully uploaded to s3 -> 'www_office-mall_co_kr.html'
[2019-08-30 15:26:12] Consumer process "28899" is rendering for the domain "http://www.pogolfball.com"
Request went wrong
[2019-08-30 15:26:12] HTML file is successfully uploaded to s3 -> 'www_pogolfball_com.html'
[2019-08-30 15:26:12] Consumer process "28899" is rendering for the domain "http://www.huppyday.com"
Request went wrong
[2019-08-30 15:26:12] HTML file is successfully uploaded to s3 -> 'www_huppyday_com.html'
[2019-08-30 15:26:12] Consumer process "28899" is rendering for the domain "http://www.dadflower.com"
Request went wrong
[2019-08-30 15:26:12] HTML file is successfully uploaded to s3 -> 'www_dadflower_com.html'
[2019-08-30 15:26:12] Consumer process "28899" is rendering for the domain "http://www.0cd.co.kr"
Request went wrong
[2019-08-30 15:26:12] HTML file is successfully uploaded to s3 -> 'www_0cd_co_kr.html'
[2019-08-30 15:26:12] Consumer process "28899" is rendering for the domain "http://www.jtshop.co.kr"
[2019-08-30 15:26:12] HTML file is successfully uploaded to s3 -> 'www_jtshop_co_kr.html'
[2019-08-30 15:26:12] Consumer process "28899" is rendering for the domain "http://www.ikyungil.com"
[2019-08-30 15:26:12] HTML file is successfully uploaded to s3 -> 'www_ikyungil_com.html'
[2019-08-30 15:26:12] Consumer process "28899" is rendering for the domain "http://www.buti1004.co.kr"
Request went wrong
[2019-08-30 15:26:12] HTML file is successfully uploaded to s3 -> 'www_buti1004_co_kr.html'
[2019-08-30 15:26:12] Consumer process "28899" is rendering for the domain "http://sungyoun.co.kr"
Request went wrong
[2019-08-30 15:26:12] HTML file is successfully uploaded to s3 -> 'sungyoun_co_kr.html'
[2019-08-30 15:26:12] Consumer process "28899" is rendering for the domain "http://esysmall.com"
[2019-08-30 15:26:12] HTML file is successfully uploaded to s3 -> 'esysmall_com.html'
[2019-08-30 15:26:12] Consumer process "28899" is rendering for the domain "http://www.dasoori.com"
Request went wrong
[2019-08-30 15:26:12] HTML file is successfully uploaded to s3 -> 'www_dasoori_com.html'
[2019-08-30 15:26:12] Consumer process "28899" is rendering for the domain "http://moon6416.cafe24.com"
[2019-08-30 15:26:12] HTML file is successfully uploaded to s3 -> 'moon6416_cafe24_com.html'
[2019-08-30 15:26:12] Consumer process "28899" is rendering for the domain "http://www.iwac.co.kr"
[2019-08-30 15:26:12] HTML file is successfully uploaded to s3 -> 'www_iwac_co_kr.html'
[2019-08-30 15:26:12] Consumer process "28899" is rendering for the domain "http://www.wenscom.com"
[2019-08-30 15:26:12] HTML file is successfully uploaded to s3 -> 'www_wenscom_com.html'
[2019-08-30 15:26:12] Consumer process "28899" is rendering for the domain "http://www.greencaddie.co.kr"
Request went wrong
[2019-08-30 15:26:12] HTML file is successfully uploaded to s3 -> 'www_greencaddie_co_kr.html'
[2019-08-30 15:26:12] Consumer process "28899" is rendering for the domain "http://www.iocctv.com"
Request went wrong
[2019-08-30 15:26:12] HTML file is successfully uploaded to s3 -> 'www_iocctv_com.html'
[2019-08-30 15:26:12] Consumer process "28899" is rendering for the domain "http://neojapan.co.kr"
Request went wrong
[2019-08-30 15:26:12] HTML file is successfully uploaded to s3 -> 'neojapan_co_kr.html'
[2019-08-30 15:26:12] Consumer process "28899" is rendering for the domain "http://www.yunmarket.co.kr"
Request went wrong
[2019-08-30 15:26:12] HTML file is successfully uploaded to s3 -> 'www_yunmarket_co_kr.html'
[2019-08-30 15:26:12] Consumer process "28899" is rendering for the domain "http://gold.co.kr"
Request went wrong
[2019-08-30 15:26:12] HTML file is successfully uploaded to s3 -> 'gold_co_kr.html'
[2019-08-30 15:26:12] Consumer process "28899" is rendering for the domain "http://www.ibors.com"
[2019-08-30 15:26:12] HTML file is successfully uploaded to s3 -> 'www_ibors_com.html'
[2019-08-30 15:26:12] Consumer process "28899" is rendering for the domain "http://www.lacoom.com"
Request went wrong
[2019-08-30 15:26:12] HTML file is successfully uploaded to s3 -> 'www_lacoom_com.html'
[2019-08-30 15:26:12] Consumer process "28899" is rendering for the domain "http://www.shinthuy.net"
Request went wrong
[2019-08-30 15:26:12] HTML file is successfully uploaded to s3 -> 'www_shinthuy_net.html'
[2019-08-30 15:26:12] Consumer process "28899" is rendering for the domain "http://www.withr.com"
[2019-08-30 15:26:12] HTML file is successfully uploaded to s3 -> 'www_withr_com.html'
[2019-08-30 15:26:12] Consumer process "28899" is rendering for the domain "http://www.bicemoto.com"
[2019-08-30 15:26:12] HTML file is successfully uploaded to s3 -> 'www_bicemoto_com.html'
[2019-08-30 15:26:12] Consumer process "28899" is rendering for the domain "http://www.bukwon.co.kr"
